{
  "content": [
     {
        "id": 2088,
        "nome": "EDEMILSON BENEDITO SOARES PRADO",
        "idade": 52,
        "sexo": "MASCULINO",
        "vivo": true,
        "urlFoto": "https://s3dev.pjc.mt.gov.br/abitus.foto-pessoa/c0e0650da36db49df5c3a7c2e644a6407aca79b406c1b762f005fbd23ba6fef2-1654260863937.jpg?X-Amz-Algorithm=AWS4-HMAC-SHA256&X-Amz-Credential=pjc%40dev%2F20220611%2Fus-east-1%2Fs3%2Faws4_request&X-Amz-Date=20220611T021122Z&X-Amz-Expires=600&X-Amz-SignedHeaders=host&X-Amz-Signature=8634bc599e34c0a2f159055944280a65b2ae493c69e85ee685dd1310796ae72f",
        "ultimaOcorrencia": {
           "dtDesaparecimento": "2021-05-23T09:30:00",
           "dataLocalizacao": null,
           "encontradoVivo": true,
           "localDesaparecimentoConcat": "JARDIM ACLIMAÇÃO - Cuiabá/MT",
           "ocorrenciaEntrevDesapDTO": {
              "informacao": "A vitima foi vista próximo ao shopping pantanal no dia 23/05/2021 e ainda não deu noticias. Familiares procuram por noticias.",
              "vestimentasDesaparecido": "COM CALÇA E SEM CAMISA"
           },
           "listaCartaz": null,
           "ocoId": 1150
        }
     },
     {
        "id": 2086,
        "nome": "HELIELSON OLIVEIRA SOUSA",
        "idade": 17,
        "sexo": "MASCULINO",
        "vivo": true,
        "urlFoto": "https://s3dev.pjc.mt.gov.br/abitus.foto-pessoa/8a729d0b79f121633a1aecb8fe167b623ed4d849cdaaaa3459f2c01bebb40cc7-1654260918564.jpg?X-Amz-Algorithm=AWS4-HMAC-SHA256&X-Amz-Credential=pjc%40dev%2F20220611%2Fus-east-1%2Fs3%2Faws4_request&X-Amz-Date=20220611T021122Z&X-Amz-Expires=600&X-Amz-SignedHeaders=host&X-Amz-Signature=90bb6c50a15f23323825d6ae405b35d1d1ea85b99fa51d89f2d0d13b3a50af00",
        "ultimaOcorrencia": {
           "dtDesaparecimento": "2021-05-22T11:00:00",
           "dataLocalizacao": null,
           "encontradoVivo": true,
           "localDesaparecimentoConcat": "CRISTO REI - Várzea Grande/MT",
           "ocorrenciaEntrevDesapDTO": {
              "informacao": "A vítima saiu de casa sem a autorização dos pais e até o momento não deu notícias. Familiares estão preocupados. ",
              "vestimentasDesaparecido": "Não Informado."
           },
           "listaCartaz": null,
           "ocoId": 1149
        }
     },
     {
        "id": 2084,
        "nome": "MANOEL ANTONIO DE ARRUDA",
        "idade": 89,
        "sexo": "MASCULINO",
        "vivo": true,
        "urlFoto": "https://s3dev.pjc.mt.gov.br/abitus.foto-pessoa/5f6b8dd61e0ca1a84073f9bd23eb603ea55bdc169295797ac7b26269d6485948-1646742898009.png?X-Amz-Algorithm=AWS4-HMAC-SHA256&X-Amz-Credential=pjc%40dev%2F20220611%2Fus-east-1%2Fs3%2Faws4_request&X-Amz-Date=20220611T021122Z&X-Amz-Expires=600&X-Amz-SignedHeaders=host&X-Amz-Signature=a138880c48cdc474eba11110b2044e24f14b43ee34f1c9a1ca0cc02bb1469a70",
        "ultimaOcorrencia": {
           "dtDesaparecimento": "2021-05-21T14:02:00",
           "dataLocalizacao": null,
           "encontradoVivo": true,
           "localDesaparecimentoConcat": "GOIABEIRAS - Cuiabá/MT",
           "ocorrenciaEntrevDesapDTO": {
              "informacao": "visto pela ultima vez próximo ao Teatro Municipal",
              "vestimentasDesaparecido": "SHORT JEANS, TENIS AZUL NIKE, CAMISETA CAVA PRETA"
           },
           "listaCartaz": null,
           "ocoId": 1148
        }
     },
     {
        "id": 2065,
        "nome": "JEAN LUCIO DE ALMEIDA",
        "idade": 28,
        "sexo": "MASCULINO",
        "vivo": true,
        "urlFoto": "https://s3dev.pjc.mt.gov.br/abitus.foto-pessoa/d22c0637292bf452e313ff9ade4e19e5559ce2b5a1758b9a31a0eab94be7c73d-1646743013718.jpg?X-Amz-Algorithm=AWS4-HMAC-SHA256&X-Amz-Credential=pjc%40dev%2F20220611%2Fus-east-1%2Fs3%2Faws4_request&X-Amz-Date=20220611T021122Z&X-Amz-Expires=600&X-Amz-SignedHeaders=host&X-Amz-Signature=72be8afcd29d0c53ffd6fe8767c926f8dfd31450c996d04bd44ab24fd3657397",
        "ultimaOcorrencia": {
           "dtDesaparecimento": "2021-05-19T01:00:00",
           "dataLocalizacao": null,
           "encontradoVivo": true,
           "localDesaparecimentoConcat": "COSTA VERDE - Várzea Grande/MT",
           "ocorrenciaEntrevDesapDTO": {
              "informacao": "Visto pela última vez saindo da UNIC em um carro preto.",
              "vestimentasDesaparecido": "UNIFORME DO CURSO DE DIREITO UNIC"
           },
           "listaCartaz": null,
           "ocoId": 1138
        }
     },
     {
        "id": 2073,
        "nome": "EDSON CARLOS RIBEIRO DE ARRUDA",
        "idade": 35,
        "sexo": "MASCULINO",
        "vivo": true,
        "urlFoto": "https://s3dev.pjc.mt.gov.br/abitus.foto-pessoa/bc33c1bdfb5f2927ccf34b406247ddefa41611d78b6405ea9cf1026f5f956b7d-1646743045705.png?X-Amz-Algorithm=AWS4-HMAC-SHA256&X-Amz-Credential=pjc%40dev%2F20220611%2Fus-east-1%2Fs3%2Faws4_request&X-Amz-Date=20220611T021122Z&X-Amz-Expires=600&X-Amz-SignedHeaders=host&X-Amz-Signature=b93811b581ca790f695d7633441c357046e72464145b3c48612e87e560163dab",
        "ultimaOcorrencia": {
           "dtDesaparecimento": "2021-05-17T14:00:00",
           "dataLocalizacao": null,
           "encontradoVivo": true,
           "localDesaparecimentoConcat": "CPA 2 - Cuiabá/MT",
           "ocorrenciaEntrevDesapDTO": {
              "informacao": "A vítima saiu de casa para trabalhar no dia 17/05/2021 e até o momento não retornou para casa. Familiares procuram por notícias. ",
              "vestimentasDesaparecido": "Uniforme da Oi verde, calça jeans claro e sandália de couro."
           },
           "listaCartaz": null,
           "ocoId": 1142
        }
     },
     {
        "id": 2081,
        "nome": "GUILHERME FRANCISCO FILHO",
        "idade": 53,
        "sexo": "MASCULINO",
        "vivo": true,
        "urlFoto": "https://s3dev.pjc.mt.gov.br/abitus.foto-pessoa/e79db1526716eb542a956839d2923e37b4d58f301bc64b7310c4ab259453d01a-1646743418912.jpg?X-Amz-Algorithm=AWS4-HMAC-SHA256&X-Amz-Credential=pjc%40dev%2F20220611%2Fus-east-1%2Fs3%2Faws4_request&X-Amz-Date=20220611T021122Z&X-Amz-Expires=600&X-Amz-SignedHeaders=host&X-Amz-Signature=543ac64aecb12701b484ba92955cae6d4916993a318986800ac1bc317b66cf4a",
        "ultimaOcorrencia": {
           "dtDesaparecimento": "2021-05-17T00:00:00",
           "dataLocalizacao": null,
           "encontradoVivo": true,
           "localDesaparecimentoConcat": "OUTROS - Rosário Oeste/MT",
           "ocorrenciaEntrevDesapDTO": {
              "informacao": "VÍTIMA DE CÉU AZUL/PR, DESAPARECEU EM ROSÁRIO DO OESTE/MT, USAVA UMA MOTO TITAN PRETA, PLACA: AXD-9523.",
              "vestimentasDesaparecido": "NÃO INFORMADO"
           },
           "listaCartaz": null,
           "ocoId": 1146
        }
     },
     {
        "id": 2077,
        "nome": "JOSE DE ALMEIDA",
        "idade": 44,
        "sexo": "MASCULINO",
        "vivo": true,
        "urlFoto": "https://s3dev.pjc.mt.gov.br/abitus.foto-pessoa/379253cb34368158f5b6efe3a00eff64f4a3025b869f62210e4c28b92ba81a74-1654260832083.jpg?X-Amz-Algorithm=AWS4-HMAC-SHA256&X-Amz-Credential=pjc%40dev%2F20220611%2Fus-east-1%2Fs3%2Faws4_request&X-Amz-Date=20220611T021122Z&X-Amz-Expires=600&X-Amz-SignedHeaders=host&X-Amz-Signature=f874080a9d609fc8b349f9f2b6c8e73172fcfecbc7b04cbd4bf708f4911561c4",
        "ultimaOcorrencia": {
           "dtDesaparecimento": "2021-05-10T00:00:00",
           "dataLocalizacao": null,
           "encontradoVivo": true,
           "localDesaparecimentoConcat": "23 DE SETEMBRO - Várzea Grande/MT",
           "ocorrenciaEntrevDesapDTO": {
              "informacao": "Visto pela ultima vez soltando pipa na zona rural de Cuiabá.",
              "vestimentasDesaparecido": "UNIFORME DA ENERGISA"
           },
           "listaCartaz": null,
           "ocoId": 1144
        }
     },
     {
        "id": 2071,
        "nome": "PATRICK XAVIER BATISTA",
        "idade": 25,
        "sexo": "MASCULINO",
        "vivo": true,
        "urlFoto": "https://s3dev.pjc.mt.gov.br/abitus.foto-pessoa/115bdead8ff363140979f09e8d98480736333f6c6565a6182607a95ef2d565bc-1646743474369.jpg?X-Amz-Algorithm=AWS4-HMAC-SHA256&X-Amz-Credential=pjc%40dev%2F20220611%2Fus-east-1%2Fs3%2Faws4_request&X-Amz-Date=20220611T021122Z&X-Amz-Expires=600&X-Amz-SignedHeaders=host&X-Amz-Signature=fbd1aecc50c673e9e5eef6e95a88012c8a20887e248a6b0da820a9d8c46a7211",
        "ultimaOcorrencia": {
           "dtDesaparecimento": "2021-05-06T09:00:00",
           "dataLocalizacao": null,
           "encontradoVivo": true,
           "localDesaparecimentoConcat": "NOVA FRONTEIRA - Várzea Grande/MT",
           "ocorrenciaEntrevDesapDTO": {
              "informacao": "A vítima saiu de Cuiabá sentido a Metropolitana de Belo Horizonte no dia 04/04/2021 e até o momento não se tem notícias. Familiares estão preocupados.",
              "vestimentasDesaparecido": "Não Informado."
           },
           "listaCartaz": null,
           "ocoId": 1141
        }
     },
     {
        "id": 454,
        "nome": "FRANCISCO DE ASSIS CAMILO SOUSA",
        "idade": 39,
        "sexo": "MASCULINO",
        "vivo": true,
        "urlFoto": "https://s3dev.pjc.mt.gov.br/abitus.foto-pessoa/1856c6ace1263115ce2355f8383fb578be932d2186e476679e675e1fc1ceafe6-1654260552108.jpg?X-Amz-Algorithm=AWS4-HMAC-SHA256&X-Amz-Credential=pjc%40dev%2F20220611%2Fus-east-1%2Fs3%2Faws4_request&X-Amz-Date=20220611T021122Z&X-Amz-Expires=600&X-Amz-SignedHeaders=host&X-Amz-Signature=3723ba5d6c67464267ec003cbcb27fac94f46b2c70cb9cca6e6827476ab177c6",
        "ultimaOcorrencia": {
           "dtDesaparecimento": "2021-05-05T09:00:00",
           "dataLocalizacao": null,
           "encontradoVivo": true,
           "localDesaparecimentoConcat": "JARDIM LIBERDADE - Cuiabá/MT",
           "ocorrenciaEntrevDesapDTO": {
              "informacao": "Visto pela última vez na Igreja Matriz.",
              "vestimentasDesaparecido": "BATINA, CHINELOS DE COURO"
           },
           "listaCartaz": null,
           "ocoId": 1133
        }
     },
     {
        "id": 2092,
        "nome": "TIAGO ARAUJO",
        "idade": 33,
        "sexo": "MASCULINO",
        "vivo": true,
        "urlFoto": "https://s3dev.pjc.mt.gov.br/abitus.foto-pessoa/301e4d0828dd9c3f0d705766be3ce4652f94f77186eaaa2fb11444e2dde11a73-1646743340712.jpg?X-Amz-Algorithm=AWS4-HMAC-SHA256&X-Amz-Credential=pjc%40dev%2F20220611%2Fus-east-1%2Fs3%2Faws4_request&X-Amz-Date=20220611T021122Z&X-Amz-Expires=600&X-Amz-SignedHeaders=host&X-Amz-Signature=1daa0a09e110e68537baaf6afe5ff9259c66108c65f815382efb2e02f60b7270",
        "ultimaOcorrencia": {
           "dtDesaparecimento": "2021-05-02T17:00:00",
           "dataLocalizacao": null,
           "encontradoVivo": true,
           "localDesaparecimentoConcat": "JARDIM RENASCER - Cuiabá/MT",
           "ocorrenciaEntrevDesapDTO": {
              "informacao": "A vitima desapareceu no dia 02/05/2021 e ainda não deu noticias. Familiares estão preocupados.",
              "vestimentasDesaparecido": "SHORT MARROM FINO E SEM CAMISA"
           },
           "listaCartaz": null,
           "ocoId": 1152
        }
     }
  ],
  "pageable": {
     "sort": {
        "unsorted": false,
        "sorted": true,
        "empty": false
     },
     "pageNumber": 0,
     "pageSize": 10,
     "offset": 0,
     "paged": true,
     "unpaged": false
  },
  "totalPages": 25,
  "totalElements": 247,
  "last": false,
  "first": true,
  "numberOfElements": 10,
  "sort": {
     "unsorted": false,
     "sorted": true,
     "empty": false
  },
  "size": 10,
  "number": 0,
  "empty": false
}
